UART-RX/transcript
# 
# 
# 
# 
# //  Questa Sim-64
# //  Version 2021.1 win64 Jan 19 2021
# //
# //  Copyright 1991-2021 Mentor Graphics Corporation
# //  All Rights Reserved.
# //
# //  QuestaSim and its associated documentation contain trade
# //  secrets and commercial or financial information that are the property of
# //  Mentor Graphics Corporation and are privileged, confidential,
# //  and exempt from disclosure under the Freedom of Information Act,
# //  5 U.S.C. Section 552. Furthermore, this information
# //  is prohibited from disclosure under the Trade Secrets Act,
# //  18 U.S.C. Section 1905.
# //
# vsim -voptargs="+acc" TB 
# Start time: 20:44:56 on Sep 23,2024
# ** Note: (vsim-8009) Loading existing optimized design _opt1
# Loading sv_std.std
# Loading work.TB(fast)
# Loading work.UART_RX_Wrapper(fast)
# Loading work.FSM(fast)
# Loading work.edge_bit_counter(fast)
# Loading work.data_sampling(fast)
# Loading work.deserializer(fast)
# Loading work.Parity_Check(fast)
# Loading work.Stop_Check(fast)
# Loading work.Strt_Check(fast)
add wave -position insertpoint  \
sim:/TB/clk \
sim:/TB/divided_clk \
sim:/TB/test_validity \
sim:/TB/rst \
sim:/TB/par_en \
sim:/TB/par_typ \
sim:/TB/RX_IN \
sim:/TB/prescale \
sim:/TB/data_valid \
sim:/TB/Parallel_DATA
# ** Warning: (vsim-WLF-5000) WLF file currently in use: vsim.wlf
#           File in use by: Saleh  Hostname: SALEHHESHAM  ProcessID: 2432
#           Attempting to use alternate WLF file "./wlftj5242c".
# ** Warning: (vsim-WLF-5001) Could not open WLF file: vsim.wlf
#           Using alternate file: ./wlftj5242c
add wave -position insertpoint  \
sim:/TB/wrapper_dut/fsm_DUT/strt_glitch \
sim:/TB/wrapper_dut/fsm_DUT/strt_chk_en \
sim:/TB/wrapper_dut/fsm_DUT/ns \
sim:/TB/wrapper_dut/fsm_DUT/cs
run -all
#                    0:par_en=0, par_typ=0, RX_IN=0, Prescale=          0, Data_valid=0, Parallel_DATA=00000000000
#                   20:par_en=1, par_typ=0, RX_IN=0, Prescale=          8, Data_valid=0, Parallel_DATA=00000000000
#                   32:par_en=1, par_typ=0, RX_IN=1, Prescale=          8, Data_valid=0, Parallel_DATA=00000000000
#                   45:par_en=1, par_typ=0, RX_IN=1, Prescale=          8, Data_valid=0, Parallel_DATA=00000000001
#                   61:par_en=1, par_typ=0, RX_IN=1, Prescale=          8, Data_valid=0, Parallel_DATA=00000000011
#                   77:par_en=1, par_typ=0, RX_IN=1, Prescale=          8, Data_valid=0, Parallel_DATA=00000000111
#                   93:par_en=1, par_typ=0, RX_IN=1, Prescale=          8, Data_valid=0, Parallel_DATA=00000001111
#                  109:par_en=1, par_typ=0, RX_IN=1, Prescale=          8, Data_valid=0, Parallel_DATA=00000011111
#                  125:par_en=1, par_typ=0, RX_IN=1, Prescale=          8, Data_valid=0, Parallel_DATA=00000111111
#                  141:par_en=1, par_typ=0, RX_IN=1, Prescale=          8, Data_valid=0, Parallel_DATA=00001111111
#                  157:par_en=1, par_typ=0, RX_IN=1, Prescale=          8, Data_valid=0, Parallel_DATA=00011111111
#                  160:par_en=1, par_typ=0, RX_IN=0, Prescale=          8, Data_valid=0, Parallel_DATA=00011111111
#                  173:par_en=1, par_typ=0, RX_IN=0, Prescale=          8, Data_valid=0, Parallel_DATA=00111111110
#                  176:par_en=1, par_typ=0, RX_IN=1, Prescale=          8, Data_valid=0, Parallel_DATA=00111111110
#                  189:par_en=1, par_typ=0, RX_IN=1, Prescale=          8, Data_valid=1, Parallel_DATA=01111111101
#                  195:par_en=1, par_typ=0, RX_IN=1, Prescale=          8, Data_valid=1, Parallel_DATA=00000000000
# Test sending while the par_en is de-active
#                  201:par_en=0, par_typ=0, RX_IN=0, Prescale=          8, Data_valid=1, Parallel_DATA=00000000000
#                  208:par_en=0, par_typ=0, RX_IN=1, Prescale=          8, Data_valid=1, Parallel_DATA=00000000000
#                  213:par_en=0, par_typ=0, RX_IN=1, Prescale=          8, Data_valid=1, Parallel_DATA=00000000001
#                  229:par_en=0, par_typ=0, RX_IN=1, Prescale=          8, Data_valid=1, Parallel_DATA=00000000011
#                  245:par_en=0, par_typ=0, RX_IN=1, Prescale=          8, Data_valid=1, Parallel_DATA=00000000111
#                  261:par_en=0, par_typ=0, RX_IN=1, Prescale=          8, Data_valid=1, Parallel_DATA=00000001111
#                  277:par_en=0, par_typ=0, RX_IN=1, Prescale=          8, Data_valid=1, Parallel_DATA=00000011111
#                  293:par_en=0, par_typ=0, RX_IN=1, Prescale=          8, Data_valid=1, Parallel_DATA=00000111111
#                  309:par_en=0, par_typ=0, RX_IN=1, Prescale=          8, Data_valid=1, Parallel_DATA=00001111111
#                  325:par_en=0, par_typ=0, RX_IN=1, Prescale=          8, Data_valid=1, Parallel_DATA=00011111111
#                  341:par_en=0, par_typ=0, RX_IN=1, Prescale=          8, Data_valid=1, Parallel_DATA=00111111111
# ** Note: $stop    : TB.sv(96)
#    Time: 416 ns  Iteration: 0  Instance: /TB
# Break in Module TB at TB.sv line 96
# End time: 20:46:00 on Sep 23,2024, Elapsed time: 0:01:04
# Errors: 0, Warnings: 2
